Елочка

; https://sibmama.ru/graficheskii-diktant.htm

2 вверх, 6 влево, 2 вверх, 3 вправо, 1 вверх, 2 влево, 2 вверх, 3 вправо,
1вверх, 2 влево, 2 вверх, 3 вправо, 1 вверх, 2 влево, 2 вверх, 3 вправо,
1 вверх, 2 влево, 2 вверх, 2 вправо, 1 вверх, 1 влево, 1 вверх, 1 вправо,
1 вверх, 1 вправо, 1 вниз, 1 вправо, 1 вниз, 1 влево, 1 вниз, 2 вправо, 2 вниз,
2 влево, 1 вниз, 3 вправо, 2 вниз, 2 влево, 1 вниз, 3 вправо, 2 вниз, 2 влево,
1 вниз, 3 вправо, 2 вниз, 2 влево, 1 вниз, 3 вправо, 2 вниз, 6 влево, 2 вниз,
1 влево.
